<?xml version="1.0" encoding="UTF-8" standalone="no"?>
<svg
   xmlns:dc="http://purl.org/dc/elements/1.1/"
   xmlns:cc="http://creativecommons.org/ns#"
   xmlns:rdf="http://www.w3.org/1999/02/22-rdf-syntax-ns#"
   xmlns:svg="http://www.w3.org/2000/svg"
   xmlns="http://www.w3.org/2000/svg"
   xmlns:sodipodi="http://sodipodi.sourceforge.net/DTD/sodipodi-0.dtd"
   xmlns:inkscape="http://www.inkscape.org/namespaces/inkscape"
   version="1.0"
   width="1117.365"
   height="426.17068"
   id="svg4136"
   inkscape:version="0.91 r13725"
   sodipodi:docname="modular-jdk-deprecated.svg">
  <metadata
     id="metadata4154">
    <rdf:RDF>
      <cc:Work
         rdf:about="">
        <dc:format>image/svg+xml</dc:format>
        <dc:type
           rdf:resource="http://purl.org/dc/dcmitype/StillImage" />
        <dc:title></dc:title>
      </cc:Work>
    </rdf:RDF>
  </metadata>
  <defs
     id="defs4152" />
  <sodipodi:namedview
     pagecolor="#ffffff"
     bordercolor="#666666"
     borderopacity="1"
     objecttolerance="10"
     gridtolerance="10"
     guidetolerance="10"
     inkscape:pageopacity="0"
     inkscape:pageshadow="2"
     inkscape:window-width="1855"
     inkscape:window-height="1056"
     id="namedview4150"
     showgrid="false"
     inkscape:zoom="0.73774808"
     inkscape:cx="650.2366"
     inkscape:cy="-76.504504"
     inkscape:window-x="65"
     inkscape:window-y="24"
     inkscape:window-maximized="1"
     inkscape:current-layer="svg4136"
     showguides="false"
     fit-margin-top="0"
     fit-margin-left="0"
     fit-margin-right="0"
     fit-margin-bottom="0" />
  <path
     style="fill:#b69090;fill-opacity:0.47838619;stroke:#707070;stroke-width:2.5;stroke-linecap:round;stroke-miterlimit:4;stroke-dasharray:none;stroke-dashoffset:0;stroke-opacity:1"
     d="m 697.34382,56.518526 c -8.27495,-0.0602 -15.91783,4.87213 -13.84647,11.66127 4.81298,15.77519 20.40319,29.55284 -19.89181,30.67499 l -105.18653,0 0,53.136514 c 1.18182,35.85923 16.91559,22.07499 34.93623,17.83257 11.77724,-2.7726 18.65069,14.2662 7.97672,22.89496 -12.43967,10.05614 -40.97515,-12.33784 -42.91295,16.64165 l 0,52.42784 104.72869,0 c 40.88866,-1.02758 25.18134,-14.85219 20.34965,-30.68866 -3.15635,-10.34535 16.24299,-16.38312 26.06604,-7.00691 11.448,10.92724 -14.04772,35.99335 18.94279,37.69557 l 108.70928,0 0,-52.42784 c 1.9378,-28.97949 30.47328,-6.58551 42.91295,-16.64165 10.67397,-8.62876 3.80052,-25.66756 -7.97672,-22.89496 -18.02064,4.24242 -33.75441,18.02666 -34.93623,-17.83257 l 0,-53.136514 -108.91154,0 c -32.67243,-1.79764 -7.31687,-26.77594 -18.74053,-37.67994 -3.37667,-3.22308 -7.88507,-4.6248 -12.21957,-4.65632 z"
     id="rect4156-86-9"
     inkscape:connector-curvature="0" />
  <path
     style="fill:#b69090;fill-opacity:0.47838619;stroke:#707070;stroke-width:2.5;stroke-linecap:round;stroke-miterlimit:4;stroke-dasharray:none;stroke-dashoffset:0;stroke-opacity:1"
     d="m 975.92807,56.518516 c -8.2749,-0.0602 -15.9178,4.87213 -13.8465,11.66127 4.813,15.77519 20.4032,29.55284 -19.8918,30.67499 l -105.1865,0 0,53.136514 c 1.18182,35.85923 16.91559,22.07499 34.93623,17.83257 11.77724,-2.7726 18.65069,14.2662 7.97672,22.89496 -12.43967,10.05615 -40.97515,-12.33784 -42.91295,16.64166 l 0,52.42784 104.7287,0 c 40.8887,-1.02758 25.1813,-14.85219 20.3496,-30.68866 -3.1563,-10.34535 16.243,-16.38312 26.0661,-7.00691 11.44801,10.92724 -14.0477,35.99335 18.94273,37.69557 l 108.7093,0 c 0.7094,-72.31218 0,-104.22535 0,-162.933544 l -108.9116,0 c -32.67233,-1.79764 -7.31682,-26.77593 -18.74043,-37.67993 -3.3767,-3.22308 -7.8851,-4.6248 -12.2196,-4.65633 z"
     id="rect4156-86-0"
     inkscape:connector-curvature="0"
     sodipodi:nodetypes="sscccsscccssccccss" />
  <path
     style="fill:#ada999;fill-opacity:0.47838619;stroke:none;stroke-width:2.5;stroke-linecap:round;stroke-miterlimit:4;stroke-dasharray:none;stroke-dashoffset:0;stroke-opacity:1"
     d="m 0.89997066,31.139986 0,69.962284 104.72868934,0 c 40.88897,-1.02754 25.18134,-14.854104 20.34965,-30.690614 -3.15636,-10.34535 16.24298,-16.38312 26.06604,-7.0069 11.45121,10.9303 -14.06093,36.00794 18.97168,37.697514 l 108.68039,0 -0.47923,-69.962284 z"
     id="rect4156-8"
     inkscape:connector-curvature="0"
     sodipodi:nodetypes="cccsscccc" />
  <path
     style="fill:#ada999;fill-opacity:0.47838619;stroke:none;stroke-width:2.5;stroke-linecap:round;stroke-miterlimit:4;stroke-dasharray:none;stroke-dashoffset:0;stroke-opacity:1"
     d="m 280.81839,30.827406 -0.47218,70.274864 104.7287,0 c 40.88867,-1.02758 25.18133,-14.854134 20.34965,-30.690614 -3.15635,-10.34535 16.24299,-16.38312 26.06605,-7.0069 11.45117,10.93027 -14.06265,36.00779 18.96945,37.697514 l 108.6826,0 -0.23962,-70.035244 z"
     id="rect4156-6"
     inkscape:connector-curvature="0"
     sodipodi:nodetypes="cccsscccc" />
  <path
     style="fill:#ada999;fill-opacity:0.47838619;stroke:none;stroke-width:2.5;stroke-linecap:round;stroke-miterlimit:4;stroke-dasharray:none;stroke-dashoffset:0;stroke-opacity:1"
     d="m 835.65809,31.306646 0,69.795624 104.72647,0 c 40.88896,-1.02753 25.18357,-14.854094 20.35188,-30.690604 -3.15635,-10.34535 16.24076,-16.38313 26.06381,-7.00691 11.45073,10.9298 -14.05835,36.00584 18.96735,37.697514 l 108.687,0 0.3289,-69.877854 z"
     id="rect4156-89"
     inkscape:connector-curvature="0"
     sodipodi:nodetypes="cccsscccc" />
  <path
     style="fill:#ada999;fill-opacity:0.47838619;stroke:none;stroke-width:2.5;stroke-linecap:round;stroke-miterlimit:4;stroke-dasharray:none;stroke-dashoffset:0;stroke-opacity:1"
     d="m 560.1399,31.388856 -0.1574,69.713424 104.7287,0 c 40.88867,-1.02758 25.18133,-14.854134 20.34965,-30.690614 -3.15635,-10.34535 16.24299,-16.38312 26.06605,-7.0069 11.45117,10.93027 -14.06265,36.00779 18.96945,37.697514 l 108.6826,0 0,-69.473804 z"
     id="rect4156-6-9"
     inkscape:connector-curvature="0"
     sodipodi:nodetypes="cccsscccc" />
  <path
     style="fill:#b69090;fill-opacity:0.47838619;stroke:#707070;stroke-width:2.5;stroke-linecap:round;stroke-miterlimit:4;stroke-dasharray:none;stroke-dashoffset:0;stroke-opacity:1"
     d="m 140.81935,219.10923 c -8.27495,-0.0602 -15.91783,4.87214 -13.84647,11.66127 4.813,15.77526 20.40382,29.55294 -19.89181,30.67499 l -105.1865459,0 0,162.93354 104.7286959,0 c 40.88898,-1.02753 25.18135,-14.85215 20.34966,-30.68866 -3.15635,-10.34535 16.24299,-16.38312 26.06604,-7.00691 11.448,10.92724 -14.0455,35.99335 18.945,37.69557 l 108.70706,0 0,-52.40832 c 1.92582,-29.0103 30.47038,-6.60267 42.91296,-16.66117 10.67397,-8.62876 3.80274,-25.66755 -7.9745,-22.89495 -18.02842,4.24425 -33.76871,18.04017 -34.93846,-17.87748 l 0,-53.09162 -108.90931,0 c -32.67243,-1.79763 -7.3191,-26.77594 -18.74275,-37.67994 -3.37668,-3.22308 -7.88508,-4.62478 -12.21957,-4.65632 z"
     id="rect4156-88"
     inkscape:connector-curvature="0" />
  <path
     style="fill:#b69090;fill-opacity:0.47838619;stroke:#707070;stroke-width:2.5;stroke-linecap:round;stroke-miterlimit:4;stroke-dasharray:none;stroke-dashoffset:0;stroke-opacity:1"
     d="m 419.40396,219.10924 c -8.27495,-0.0602 -15.91783,4.87213 -13.84647,11.66127 4.81298,15.77519 20.40319,29.55284 -19.89181,30.67499 l -105.18653,0 0,53.13652 c 1.18182,35.85923 16.91559,22.07499 34.93623,17.83257 11.77724,-2.7726 18.65069,14.2662 7.97672,22.89496 -12.43967,10.05614 -40.97515,-12.33784 -42.91295,16.64165 l 0,52.42784 104.72869,0 c 40.88866,-1.02758 25.18134,-14.85219 20.34965,-30.68866 -3.15635,-10.34535 16.24299,-16.38312 26.06604,-7.00691 11.448,10.92724 -14.04772,35.99335 18.94279,37.69557 l 108.70928,0 0,-52.42784 c 1.9378,-28.97949 30.47328,-6.58551 42.91295,-16.64165 10.67397,-8.62876 3.80052,-25.66756 -7.97672,-22.89496 -18.02064,4.24242 -33.75441,18.02666 -34.93623,-17.83257 l 0,-53.13652 -108.91154,0 c -32.67243,-1.79764 -7.31687,-26.77594 -18.74053,-37.67994 -3.37667,-3.22308 -7.88507,-4.6248 -12.21957,-4.65632 z"
     id="rect4156-86"
     inkscape:connector-curvature="0" />
  <path
     style="fill:#b69090;fill-opacity:0.47838619;stroke:#707070;stroke-width:2.49574471;stroke-linecap:round;stroke-miterlimit:4;stroke-dasharray:none;stroke-dashoffset:0;stroke-opacity:1"
     d="m 697.40527,218.37628 c -8.24664,-0.0602 -15.86261,4.87307 -13.79832,11.66235 4.79651,15.77552 20.3326,29.55229 -19.82452,30.67446 l -104.82562,1.01664 0,52.12118 c 1.17777,35.85997 16.85703,22.07685 34.816,17.83435 11.73694,-2.77266 18.58672,14.26607 7.94927,22.89501 -12.3971,10.05635 -40.8341,-12.33913 -42.76527,16.64096 l 0,53.276 104.37016,-0.0847 c 40.74875,-1.0276 25.09512,-15.61381 20.27998,-31.45061 -3.14555,-10.34556 16.18776,-16.38436 25.9772,-7.00795 11.40883,10.92746 -14.00103,36.7563 18.8766,38.45856 l 109.18127,-0.16945 0,0.0225 104.94873,0.40113 c 40.68279,-1.03816 25.0444,-15.87475 20.23132,-31.70476 -3.14555,-10.34556 16.18581,-16.38436 25.97527,-7.00795 11.40896,10.92746 -14.08159,37.09518 18.79616,38.79742 l 108.4214,0.16945 0,-164.20774 -108.5395,0 c -32.56072,-1.79766 -7.2934,-26.77624 -18.67806,-37.68046 -3.36517,-3.22315 -7.85926,-4.62483 -12.17889,-4.65635 -8.24664,-0.0602 -15.86064,4.87503 -13.79638,11.66431 4.79654,15.77558 20.33131,29.55043 -19.82646,30.6725 l -106.19786,0 -5.37997,0 -103.15751,0 c -32.56064,-1.79767 -7.29155,-26.77624 -18.67612,-37.68046 -3.36511,-3.22315 -7.85921,-4.62483 -12.17888,-4.65635 z"
     id="rect4156-86-6"
     inkscape:connector-curvature="0"
     sodipodi:nodetypes="sscccsscccssccccssccccsssccccss" />
  <path
     style="fill:none;fill-rule:evenodd;stroke:#707070;stroke-width:2.5;stroke-linecap:butt;stroke-linejoin:miter;stroke-miterlimit:4;stroke-dasharray:7.5, 7.5;stroke-dashoffset:0;stroke-opacity:1"
     d="m 280.24039,31.283166 -0.0431,68.71564"
     id="path6059-3"
     inkscape:connector-curvature="0"
     sodipodi:nodetypes="cc" />
  <path
     style="fill:none;fill-rule:evenodd;stroke:#707070;stroke-width:2.51317024;stroke-linecap:butt;stroke-linejoin:miter;stroke-miterlimit:4;stroke-dasharray:none;stroke-dashoffset:0;stroke-opacity:1"
     d="M 1.2865151,3.7797425e-4 1.2565851,99.998806"
     id="path6059-3-7"
     inkscape:connector-curvature="0"
     sodipodi:nodetypes="cc" />
  <path
     style="fill:none;fill-rule:evenodd;stroke:#707070;stroke-width:2.5;stroke-linecap:butt;stroke-linejoin:miter;stroke-miterlimit:4;stroke-dasharray:7.5, 7.5;stroke-dashoffset:0;stroke-opacity:1"
     d="m 559.87668,31.283166 -0.0431,68.71564"
     id="path6059-3-4"
     inkscape:connector-curvature="0"
     sodipodi:nodetypes="cc" />
  <path
     style="fill:none;fill-rule:evenodd;stroke:#707070;stroke-width:2.5;stroke-linecap:butt;stroke-linejoin:miter;stroke-miterlimit:4;stroke-dasharray:7.5, 7.5;stroke-dashoffset:0;stroke-opacity:1"
     d="m 836.05119,31.283166 -0.0431,68.71564"
     id="path6059-3-1"
     inkscape:connector-curvature="0"
     sodipodi:nodetypes="cc" />
  <path
     style="fill:none;fill-rule:evenodd;stroke:#707070;stroke-width:2.51312232;stroke-linecap:butt;stroke-linejoin:miter;stroke-miterlimit:4;stroke-dasharray:none;stroke-dashoffset:0;stroke-opacity:1"
     d="M 1114.798,3.7697425e-4 1114.768,99.998806"
     id="path6059-3-13"
     inkscape:connector-curvature="0"
     sodipodi:nodetypes="cc" />
  <flowRoot
     xml:space="preserve"
     id="flowRoot7941"
     style="color:#000000;font-style:normal;font-variant:normal;font-weight:normal;font-stretch:normal;font-size:40px;line-height:125%;font-family:Roboto;-inkscape-font-specification:'Roboto, Normal';text-indent:0;text-align:start;text-decoration:none;text-decoration-line:none;text-decoration-style:solid;text-decoration-color:#000000;letter-spacing:0px;word-spacing:0px;text-transform:none;direction:ltr;block-progression:tb;writing-mode:lr-tb;baseline-shift:baseline;text-anchor:start;white-space:normal;clip-rule:nonzero;display:inline;overflow:visible;visibility:visible;opacity:1;isolation:auto;mix-blend-mode:normal;color-interpolation:sRGB;color-interpolation-filters:linearRGB;solid-color:#000000;solid-opacity:1;fill:#000000;fill-opacity:1;fill-rule:nonzero;stroke:none;stroke-width:1px;stroke-linecap:butt;stroke-linejoin:miter;stroke-miterlimit:4;stroke-dasharray:none;stroke-dashoffset:0;stroke-opacity:1;color-rendering:auto;image-rendering:auto;shape-rendering:auto;text-rendering:auto;enable-background:accumulate"
     transform="translate(-0.13442064,-28.635624)"><flowRegion
       id="flowRegion7943"><rect
         id="rect7945"
         width="1425.2396"
         height="259.74442"
         x="-31.629393"
         y="-59.802357" /></flowRegion><flowPara
       id="flowPara7947" /></flowRoot>  <flowRoot
     transform="translate(-159.09547,-732.20011)"
     xml:space="preserve"
     id="flowRoot7941-0"
     style="color:#000000;font-style:normal;font-variant:normal;font-weight:normal;font-stretch:normal;font-size:40px;line-height:125%;font-family:Roboto;-inkscape-font-specification:'Roboto, Normal';text-indent:0;text-align:start;text-decoration:none;text-decoration-line:none;text-decoration-style:solid;text-decoration-color:#000000;letter-spacing:0px;word-spacing:0px;text-transform:none;direction:ltr;block-progression:tb;writing-mode:lr-tb;baseline-shift:baseline;text-anchor:start;white-space:normal;clip-rule:nonzero;display:inline;overflow:visible;visibility:visible;opacity:1;isolation:auto;mix-blend-mode:normal;color-interpolation:sRGB;color-interpolation-filters:linearRGB;solid-color:#000000;solid-opacity:1;fill:#000000;fill-opacity:1;fill-rule:nonzero;stroke:none;stroke-width:1px;stroke-linecap:butt;stroke-linejoin:miter;stroke-miterlimit:4;stroke-dasharray:none;stroke-dashoffset:0;stroke-opacity:1;color-rendering:auto;image-rendering:auto;shape-rendering:auto;text-rendering:auto;enable-background:accumulate"><flowRegion
       id="flowRegion7943-2"><rect
         id="rect7945-4"
         width="1425.2396"
         height="259.74442"
         x="-31.629393"
         y="-59.802357" /></flowRegion><flowPara
       id="flowPara7947-9" /></flowRoot>  <text
     xml:space="preserve"
     style="font-style:normal;font-variant:normal;font-weight:normal;font-stretch:normal;font-size:35px;line-height:125%;font-family:Roboto;-inkscape-font-specification:'Roboto, Normal';text-align:start;letter-spacing:0px;word-spacing:0px;writing-mode:lr-tb;text-anchor:start;fill:#990000;fill-opacity:1;stroke:none;stroke-width:2.5;stroke-linecap:butt;stroke-linejoin:miter;stroke-miterlimit:4;stroke-dasharray:none;stroke-opacity:1"
     x="623.53101"
     y="179.31812"
     id="text4632-4-9"
     sodipodi:linespacing="125%"><tspan
       sodipodi:role="line"
       id="tspan4634-92-9"
       x="623.53101"
       y="179.31812">java.xml.bind</tspan></text>
  <text
     xml:space="preserve"
     style="font-style:normal;font-variant:normal;font-weight:normal;font-stretch:normal;font-size:35px;line-height:125%;font-family:Roboto;-inkscape-font-specification:'Roboto, Normal';text-align:start;letter-spacing:0px;word-spacing:0px;writing-mode:lr-tb;text-anchor:start;fill:#990000;fill-opacity:1;stroke:none;stroke-width:2.5;stroke-linecap:butt;stroke-linejoin:miter;stroke-miterlimit:4;stroke-dasharray:none;stroke-opacity:1"
     x="905.68073"
     y="179.31812"
     id="text4632-4-3"
     sodipodi:linespacing="125%"><tspan
       sodipodi:role="line"
       id="tspan4634-92-8"
       x="905.68073"
       y="179.31812">java.xml.ws</tspan></text>
  <text
     xml:space="preserve"
     style="font-style:normal;font-variant:normal;font-weight:normal;font-stretch:normal;font-size:35px;line-height:125%;font-family:Roboto;-inkscape-font-specification:'Roboto, Normal';text-align:start;letter-spacing:0px;word-spacing:0px;writing-mode:lr-tb;text-anchor:start;fill:#990000;fill-opacity:1;stroke:none;stroke-width:2.5;stroke-linecap:butt;stroke-linejoin:miter;stroke-miterlimit:4;stroke-dasharray:none;stroke-opacity:1"
     x="662.23022"
     y="339.42072"
     id="text4632-4-6"
     sodipodi:linespacing="125%"><tspan
       sodipodi:role="line"
       id="tspan4634-92-81"
       x="662.23022"
       y="339.42072">java.xml.ws.annotations</tspan></text>
  <text
     xml:space="preserve"
     style="font-style:normal;font-variant:normal;font-weight:normal;font-stretch:normal;font-size:35px;line-height:125%;font-family:Roboto;-inkscape-font-specification:'Roboto, Normal';text-align:start;letter-spacing:0px;word-spacing:0px;writing-mode:lr-tb;text-anchor:start;fill:#990000;fill-opacity:1;stroke:none;stroke-width:2.5;stroke-linecap:butt;stroke-linejoin:miter;stroke-miterlimit:4;stroke-dasharray:none;stroke-opacity:1"
     x="301.34067"
     y="319.61124"
     id="text4632-4-34"
     sodipodi:linespacing="125%"><tspan
       sodipodi:role="line"
       id="tspan4634-92-0"
       x="301.34067"
       y="319.61124">java.transaction</tspan></text>
  <text
     xml:space="preserve"
     style="font-style:normal;font-variant:normal;font-weight:normal;font-stretch:normal;font-size:35px;line-height:125%;font-family:Roboto;-inkscape-font-specification:'Roboto, Normal';text-align:start;letter-spacing:0px;word-spacing:0px;writing-mode:lr-tb;text-anchor:start;fill:#990000;fill-opacity:1;stroke:none;stroke-width:2.5;stroke-linecap:butt;stroke-linejoin:miter;stroke-miterlimit:4;stroke-dasharray:none;stroke-opacity:1"
     x="59.647552"
     y="349.61124"
     id="text4632-4-4"
     sodipodi:linespacing="125%"><tspan
       sodipodi:role="line"
       id="tspan4634-92-06"
       x="59.647552"
       y="349.61124">java.corba</tspan></text>
  <path
     style="fill:#b69090;fill-opacity:0.47838619;stroke:#707070;stroke-width:2.5;stroke-linecap:round;stroke-miterlimit:4;stroke-dasharray:none;stroke-dashoffset:0;stroke-opacity:1"
     d="m 140.41831,55.394724 c -8.27495,-0.0602 -15.91706,4.87103 -13.8457,11.66015 4.813,15.77527 20.40305,29.55374 -19.89258,30.67579 l -105.1855444,0 0,162.933586 104.7285144,0 c 40.88898,-1.02753 25.1813,-14.85294 20.34961,-30.68945 -3.15635,-10.34535 16.24336,-16.38207 26.06641,-7.00586 11.448,10.92724 -14.04714,35.99309 18.94336,37.69531 l 108.49609,0 0.21094,0 104.51758,0 c 40.88866,-1.02758 25.1813,-14.85298 20.34961,-30.68945 -3.15635,-10.34535 16.24335,-16.38207 26.0664,-7.00586 11.448,10.92724 -14.04715,35.99309 18.94336,37.69531 l 108.70899,0 0,-52.42773 c 1.9378,-28.97949 30.47244,-6.58644 42.91211,-16.64258 10.67397,-8.62876 3.80067,-25.66713 -7.97657,-22.89453 -18.02064,4.24242 -33.75372,18.0272 -34.93554,-17.83204 l 0,-53.136706 -108.91211,0 c -32.67243,-1.79764 -7.31658,-26.77569 -18.74024,-37.67969 -3.37667,-3.22308 -7.8862,-4.62473 -12.2207,-4.65625 -8.27495,-0.0602 -15.91706,4.87102 -13.8457,11.66015 4.81298,15.7752 20.40242,29.55364 -19.89258,30.67579 l -104.97461,0 -0.21094,0 -108.69727,0 c -32.67242,-1.79763 -7.31853,-26.77569 -18.74218,-37.67969 -3.37668,-3.22308 -7.88622,-4.62471 -12.22071,-4.65625 z"
     id="rect4156-88-9"
     inkscape:connector-curvature="0"
     sodipodi:nodetypes="ssccccssccccsscccsscccsssccccss" />
  <text
     xml:space="preserve"
     style="font-style:normal;font-variant:normal;font-weight:normal;font-stretch:normal;font-size:35px;line-height:125%;font-family:Roboto;-inkscape-font-specification:'Roboto, Normal';text-align:start;letter-spacing:0px;word-spacing:0px;writing-mode:lr-tb;text-anchor:start;fill:#990000;fill-opacity:1;stroke:none;stroke-width:2.5;stroke-linecap:butt;stroke-linejoin:miter;stroke-miterlimit:4;stroke-dasharray:none;stroke-opacity:1"
     x="163.56639"
     y="178.80542"
     id="text4632-4-4-7"
     sodipodi:linespacing="125%"><tspan
       sodipodi:role="line"
       id="tspan4634-92-06-7"
       x="163.56639"
       y="178.80542">java.activation</tspan></text>
</svg>
